(footprint "LED_SK68xx-EC3210x" (version 20221018) (generator pcbnew)
  (layer "F.Cu")
  (descr "Slim 3.2mm x 1.0mm RGB LED NeoPixel")
  (tags "NeoPixel LED RGB")
  (attr smd)
  (fp_text reference "REF**" (at 0 -1.5 unlocked) (layer "F.SilkS")
      (effects (font (size 1 1) (thickness 0.15)))
    (tstamp 0ae4876b-53fb-4e5d-b421-ea2432bd1316)
  )
  (fp_text value "LED_SK68xx-EC3210x" (at 0 0.254 unlocked) (layer "F.Fab") hide
      (effects (font (size 0.1 0.1) (thickness 0.02) bold))
    (tstamp 065cc2a2-705e-4ba8-aab0-ad26851a2158)
  )
  (fp_text user "${REFERENCE}" (at 0 0 unlocked) (layer "F.Fab")
      (effects (font (size 0.6 0.6) (thickness 0.1) bold))
    (tstamp 5f27192f-b768-414e-a143-ef0427358917)
  )
  (fp_line (start -1.85 -0.75) (end -1.85 -0.1)
    (stroke (width 0.12) (type default)) (layer "F.SilkS") (tstamp 710d5e51-d0e0-4133-ae56-50f9e15b1f66))
  (fp_line (start -1.85 -0.75) (end -1.2 -0.75)
    (stroke (width 0.12) (type default)) (layer "F.SilkS") (tstamp c3723c78-ecc3-451e-b92d-1d822428d0cf))
  (fp_line (start -0.9 -0.5) (end 0.9 -0.5)
    (stroke (width 0.12) (type default)) (layer "F.SilkS") (tstamp 3f47b600-ed6f-4674-b088-8e2bde796017))
  (fp_line (start -0.9 0.5) (end 0.9 0.5)
    (stroke (width 0.12) (type default)) (layer "F.SilkS") (tstamp 53e29c80-8347-46c3-9812-4a3efaa44328))
  (fp_line (start -1.85 -0.75) (end -1.85 0.75)
    (stroke (width 0.05) (type default)) (layer "F.CrtYd") (tstamp 91f2c7ed-18ca-44a2-8d6f-3a92861dab79))
  (fp_line (start -1.85 -0.75) (end 1.85 -0.75)
    (stroke (width 0.05) (type default)) (layer "F.CrtYd") (tstamp 90188974-1607-43e8-81bb-392db63e3a7a))
  (fp_line (start -1.85 0.75) (end 1.85 0.75)
    (stroke (width 0.05) (type default)) (layer "F.CrtYd") (tstamp c7533256-029a-4bbf-b9c8-888adf73333e))
  (fp_line (start 1.85 -0.75) (end 1.85 0.75)
    (stroke (width 0.05) (type default)) (layer "F.CrtYd") (tstamp 92b1eace-f732-48bc-a982-734ed6166d04))
  (fp_line (start -1.6 0.3) (end -1.6 -0.3)
    (stroke (width 0.1) (type solid)) (layer "F.Fab") (tstamp 897f4f02-9421-4044-8d12-87a86585f31f))
  (fp_line (start -1.4 -0.5) (end 1.4 -0.5)
    (stroke (width 0.1) (type solid)) (layer "F.Fab") (tstamp 4a6e458d-5279-49cc-ac45-291fcffa6f03))
  (fp_line (start -1.4 0.5) (end 1.4 0.5)
    (stroke (width 0.1) (type solid)) (layer "F.Fab") (tstamp 69614c3f-e8b6-4f90-a565-8725086747fe))
  (fp_line (start -1 0.5) (end -1 -0.5)
    (stroke (width 0.1) (type solid)) (layer "F.Fab") (tstamp 7fcf1d2b-82ea-4b30-bbad-40746d84ea45))
  (fp_line (start 1 0.5) (end 1 -0.5)
    (stroke (width 0.1) (type solid)) (layer "F.Fab") (tstamp b332f687-9719-4cc0-8d0c-94bbf6846d06))
  (fp_line (start 1.6 0.3) (end 1.6 -0.3)
    (stroke (width 0.1) (type solid)) (layer "F.Fab") (tstamp 133b7186-cbb2-4c9f-8323-b5c3a650700c))
  (fp_arc (start -1.6 0.3) (mid -1.458579 0.358579) (end -1.4 0.5)
    (stroke (width 0.1) (type default)) (layer "F.Fab") (tstamp 864859df-b8ad-4f50-8258-7dbb850f1e8e))
  (fp_arc (start -1.4 -0.5) (mid -1.458579 -0.358579) (end -1.6 -0.3)
    (stroke (width 0.1) (type default)) (layer "F.Fab") (tstamp 02fcd6d3-60ad-43fa-bb7a-6e605e7e69c4))
  (fp_arc (start 1.4 0.5) (mid 1.458579 0.358579) (end 1.6 0.3)
    (stroke (width 0.1) (type default)) (layer "F.Fab") (tstamp 050d46bc-e8c1-4efc-9117-8041403f6735))
  (fp_arc (start 1.6 -0.3) (mid 1.458579 -0.358579) (end 1.4 -0.5)
    (stroke (width 0.1) (type default)) (layer "F.Fab") (tstamp 72bf68cb-6904-49f2-86fc-16fe2aa56cc7))
  (pad "1" smd roundrect (at -1.3875 -0.35) (size 0.625 0.5) (layers "F.Cu" "F.Paste" "F.Mask") (roundrect_rratio 0.25) (tstamp a6eec73d-88b0-489f-bb8a-2e7c174d2171))
  (pad "2" smd roundrect (at -1.3875 0.35) (size 0.625 0.5) (layers "F.Cu" "F.Paste" "F.Mask") (roundrect_rratio 0.25) (tstamp 0f5d3f47-c7a6-46c7-9332-fc64c2adf50c))
  (pad "3" smd roundrect (at 1.3875 0.35) (size 0.625 0.5) (layers "F.Cu" "F.Paste" "F.Mask") (roundrect_rratio 0.25) (tstamp c273aae3-353e-41dd-b392-4fbb7cb195f3))
  (pad "4" smd roundrect (at 1.3875 -0.35) (size 0.625 0.5) (layers "F.Cu" "F.Paste" "F.Mask") (roundrect_rratio 0.25) (tstamp 9f3795be-0695-490d-ab34-4a11eeb3edbe))
  (model ":KICAD7_3DMODEL_DIR:LED_SMD.3dshapes/LED_NeoPixel_SK68xx-EC3210x.wrl"
    (offset (xyz 0 0 0))
    (scale (xyz 1 1 1))
    (rotate (xyz 0 0 0))
  )
)
